<?xml version="1.0" encoding="utf-8"?>
<!DOCTYPE eagle SYSTEM "eagle.dtd">
<eagle version="6.5.0">
<drawing>
<settings>
<setting alwaysvectorfont="no"/>
<setting verticaltext="up"/>
</settings>
<grid distance="0.1" unitdist="inch" unit="inch" style="lines" multiple="1" display="no" altdistance="0.01" altunitdist="inch" altunit="inch"/>
<layers>
<layer number="1" name="Top" color="4" fill="1" visible="yes" active="yes"/>
<layer number="16" name="Bottom" color="1" fill="1" visible="yes" active="yes"/>
<layer number="17" name="Pads" color="2" fill="1" visible="yes" active="yes"/>
<layer number="18" name="Vias" color="2" fill="1" visible="yes" active="yes"/>
<layer number="19" name="Unrouted" color="6" fill="1" visible="yes" active="yes"/>
<layer number="20" name="Dimension" color="15" fill="1" visible="yes" active="yes"/>
<layer number="21" name="tPlace" color="7" fill="1" visible="yes" active="yes"/>
<layer number="22" name="bPlace" color="7" fill="1" visible="yes" active="yes"/>
<layer number="23" name="tOrigins" color="15" fill="1" visible="yes" active="yes"/>
<layer number="24" name="bOrigins" color="15" fill="1" visible="yes" active="yes"/>
<layer number="25" name="tNames" color="7" fill="1" visible="yes" active="yes"/>
<layer number="26" name="bNames" color="7" fill="1" visible="yes" active="yes"/>
<layer number="27" name="tValues" color="7" fill="1" visible="yes" active="yes"/>
<layer number="28" name="bValues" color="7" fill="1" visible="yes" active="yes"/>
<layer number="29" name="tStop" color="7" fill="3" visible="no" active="yes"/>
<layer number="30" name="bStop" color="7" fill="6" visible="no" active="yes"/>
<layer number="31" name="tCream" color="7" fill="4" visible="no" active="yes"/>
<layer number="32" name="bCream" color="7" fill="5" visible="no" active="yes"/>
<layer number="33" name="tFinish" color="6" fill="3" visible="no" active="yes"/>
<layer number="34" name="bFinish" color="6" fill="6" visible="no" active="yes"/>
<layer number="35" name="tGlue" color="7" fill="4" visible="no" active="yes"/>
<layer number="36" name="bGlue" color="7" fill="5" visible="no" active="yes"/>
<layer number="37" name="tTest" color="7" fill="1" visible="no" active="yes"/>
<layer number="38" name="bTest" color="7" fill="1" visible="no" active="yes"/>
<layer number="39" name="tKeepout" color="4" fill="11" visible="yes" active="yes"/>
<layer number="40" name="bKeepout" color="1" fill="11" visible="yes" active="yes"/>
<layer number="41" name="tRestrict" color="4" fill="10" visible="yes" active="yes"/>
<layer number="42" name="bRestrict" color="1" fill="10" visible="yes" active="yes"/>
<layer number="43" name="vRestrict" color="2" fill="10" visible="yes" active="yes"/>
<layer number="44" name="Drills" color="7" fill="1" visible="no" active="yes"/>
<layer number="45" name="Holes" color="7" fill="1" visible="no" active="yes"/>
<layer number="46" name="Milling" color="3" fill="1" visible="no" active="yes"/>
<layer number="47" name="Measures" color="7" fill="1" visible="no" active="yes"/>
<layer number="48" name="Document" color="7" fill="1" visible="yes" active="yes"/>
<layer number="49" name="Reference" color="7" fill="1" visible="yes" active="yes"/>
<layer number="51" name="tDocu" color="7" fill="1" visible="yes" active="yes"/>
<layer number="52" name="bDocu" color="7" fill="1" visible="yes" active="yes"/>
<layer number="91" name="Nets" color="2" fill="1" visible="yes" active="yes"/>
<layer number="92" name="Busses" color="1" fill="1" visible="yes" active="yes"/>
<layer number="93" name="Pins" color="2" fill="1" visible="no" active="yes"/>
<layer number="94" name="Symbols" color="4" fill="1" visible="yes" active="yes"/>
<layer number="95" name="Names" color="7" fill="1" visible="yes" active="yes"/>
<layer number="96" name="Values" color="7" fill="1" visible="yes" active="yes"/>
<layer number="97" name="Info" color="7" fill="1" visible="yes" active="yes"/>
<layer number="98" name="Guide" color="6" fill="1" visible="yes" active="yes"/>
</layers>
<library>
<packages>
<package name="BQ24450DWTR">
</package>
<package name="SO-16">
<description>&lt;b&gt;Small Outline Integrated Circuit&lt;/b&gt;</description>
<wire x1="-4.9022" y1="-1.8542" x2="4.9022" y2="-1.8542" width="0.1524" layer="21"/>
<wire x1="4.9022" y1="-1.8542" x2="4.9022" y2="1.7272" width="0.1524" layer="21"/>
<wire x1="4.9022" y1="1.7272" x2="-4.9022" y2="1.7272" width="0.1524" layer="21"/>
<wire x1="-4.9022" y1="1.7272" x2="-4.9022" y2="-1.8542" width="0.1524" layer="21"/>
<wire x1="-5.144" y1="3.601" x2="-5.144" y2="-3.601" width="0.2" layer="39"/>
<wire x1="-5.144" y1="-3.601" x2="5.144" y2="-3.601" width="0.2" layer="39"/>
<wire x1="5.144" y1="-3.601" x2="5.144" y2="3.601" width="0.2" layer="39"/>
<wire x1="5.144" y1="3.601" x2="-5.144" y2="3.601" width="0.2" layer="39"/>
<circle x="-4.1148" y="-1.016" radius="0.5334" width="0.1524" layer="21"/>
<smd name="1" x="-4.445" y="-2.794" dx="0.6096" dy="1.524" layer="1"/>
<smd name="16" x="-4.445" y="2.667" dx="0.6096" dy="1.524" layer="1"/>
<smd name="2" x="-3.175" y="-2.794" dx="0.6096" dy="1.524" layer="1"/>
<smd name="3" x="-1.905" y="-2.794" dx="0.6096" dy="1.524" layer="1"/>
<smd name="15" x="-3.175" y="2.667" dx="0.6096" dy="1.524" layer="1"/>
<smd name="14" x="-1.905" y="2.667" dx="0.6096" dy="1.524" layer="1"/>
<smd name="4" x="-0.635" y="-2.794" dx="0.6096" dy="1.524" layer="1"/>
<smd name="13" x="-0.635" y="2.667" dx="0.6096" dy="1.524" layer="1"/>
<smd name="5" x="0.635" y="-2.794" dx="0.6096" dy="1.524" layer="1"/>
<smd name="12" x="0.635" y="2.667" dx="0.6096" dy="1.524" layer="1"/>
<smd name="6" x="1.905" y="-2.794" dx="0.6096" dy="1.524" layer="1"/>
<smd name="7" x="3.175" y="-2.794" dx="0.6096" dy="1.524" layer="1"/>
<smd name="11" x="1.905" y="2.667" dx="0.6096" dy="1.524" layer="1"/>
<smd name="10" x="3.175" y="2.667" dx="0.6096" dy="1.524" layer="1"/>
<smd name="8" x="4.445" y="-2.794" dx="0.6096" dy="1.524" layer="1"/>
<smd name="9" x="4.445" y="2.667" dx="0.6096" dy="1.524" layer="1"/>
<text x="-3.175" y="0.254" size="1.27" layer="25" ratio="10">&gt;NAME</text>
<text x="-3.175" y="-1.524" size="1.27" layer="27" ratio="10">&gt;VALUE</text>
<text x="-3.683" y="-0.127" size="1.016" layer="21" ratio="10" rot="R90">16</text>
<rectangle x1="4.2418" y1="1.7526" x2="4.6482" y2="2.7686" layer="51"/>
<rectangle x1="2.9718" y1="1.7526" x2="3.3782" y2="2.7686" layer="51"/>
<rectangle x1="1.7018" y1="1.7526" x2="2.1082" y2="2.7686" layer="51"/>
<rectangle x1="0.4318" y1="1.7526" x2="0.8382" y2="2.7686" layer="51"/>
<rectangle x1="-0.8382" y1="1.7526" x2="-0.4318" y2="2.7686" layer="51"/>
<rectangle x1="-2.1082" y1="1.7526" x2="-1.7018" y2="2.7686" layer="51"/>
<rectangle x1="-3.3782" y1="1.7526" x2="-2.9718" y2="2.7686" layer="51"/>
<rectangle x1="-4.6482" y1="1.7526" x2="-4.2418" y2="2.7686" layer="51"/>
<rectangle x1="-4.6482" y1="-2.8956" x2="-4.2418" y2="-1.8796" layer="51"/>
<rectangle x1="-3.3782" y1="-2.8956" x2="-2.9718" y2="-1.8796" layer="51"/>
<rectangle x1="-2.1082" y1="-2.8956" x2="-1.7018" y2="-1.8796" layer="51"/>
<rectangle x1="-0.8382" y1="-2.8956" x2="-0.4318" y2="-1.8796" layer="51"/>
<rectangle x1="0.4318" y1="-2.8956" x2="0.8382" y2="-1.8796" layer="51"/>
<rectangle x1="1.7018" y1="-2.8956" x2="2.1082" y2="-1.8796" layer="51"/>
<rectangle x1="2.9718" y1="-2.8956" x2="3.3782" y2="-1.8796" layer="51"/>
<rectangle x1="4.2418" y1="-2.8956" x2="4.6482" y2="-1.8796" layer="51"/>
</package>
<package name="SO-16DW">
<description>&lt;b&gt;DW (RPDSO-G16)&lt;/b&gt;&lt;p&gt;
Source: http://focus.ti.com/lit/ds/symlink/iso1176.pdf</description>
<wire x1="-5.395" y1="5.9" x2="5.395" y2="5.9" width="0.2" layer="39"/>
<wire x1="5.395" y1="-5.9" x2="-5.395" y2="-5.9" width="0.2" layer="39"/>
<wire x1="-5.395" y1="-5.9" x2="-5.395" y2="5.9" width="0.2" layer="39"/>
<wire x1="5.19" y1="-3.7" x2="-5.19" y2="-3.7" width="0.2032" layer="51"/>
<wire x1="-5.19" y1="-3.7" x2="-5.19" y2="3.7" width="0.2032" layer="51"/>
<wire x1="-5.19" y1="3.7" x2="5.19" y2="3.7" width="0.2032" layer="51"/>
<wire x1="5.19" y1="-3.2" x2="-5.19" y2="-3.2" width="0.2032" layer="21"/>
<wire x1="5.19" y1="3.7" x2="5.19" y2="-3.7" width="0.2032" layer="51"/>
<wire x1="5.395" y1="5.9" x2="5.395" y2="-5.9" width="0.2" layer="39"/>
<smd name="2" x="-3.175" y="-4.6" dx="0.6" dy="2.2" layer="1"/>
<smd name="13" x="-0.635" y="4.6" dx="0.6" dy="2.2" layer="1"/>
<smd name="1" x="-4.445" y="-4.6" dx="0.6" dy="2.2" layer="1"/>
<smd name="3" x="-1.905" y="-4.6" dx="0.6" dy="2.2" layer="1"/>
<smd name="4" x="-0.635" y="-4.6" dx="0.6" dy="2.2" layer="1"/>
<smd name="14" x="-1.905" y="4.6" dx="0.6" dy="2.2" layer="1"/>
<smd name="12" x="0.635" y="4.6" dx="0.6" dy="2.2" layer="1"/>
<smd name="11" x="1.905" y="4.6" dx="0.6" dy="2.2" layer="1"/>
<smd name="6" x="1.905" y="-4.6" dx="0.6" dy="2.2" layer="1"/>
<smd name="9" x="4.445" y="4.6" dx="0.6" dy="2.2" layer="1"/>
<smd name="5" x="0.635" y="-4.6" dx="0.6" dy="2.2" layer="1"/>
<smd name="7" x="3.175" y="-4.6" dx="0.6" dy="2.2" layer="1"/>
<smd name="10" x="3.175" y="4.6" dx="0.6" dy="2.2" layer="1"/>
<smd name="8" x="4.445" y="-4.6" dx="0.6" dy="2.2" layer="1"/>
<smd name="15" x="-3.175" y="4.6" dx="0.6" dy="2.2" layer="1"/>
<smd name="16" x="-4.445" y="4.6" dx="0.6" dy="2.2" layer="1"/>
<text x="-4.445" y="1.27" size="1.27" layer="25">&gt;NAME</text>
<text x="-4.445" y="-2.54" size="1.27" layer="27">&gt;VALUE</text>
<rectangle x1="-4.69" y1="-5.32" x2="-4.2" y2="-3.8" layer="51"/>
<rectangle x1="-3.42" y1="-5.32" x2="-2.93" y2="-3.8" layer="51"/>
<rectangle x1="-2.15" y1="-5.32" x2="-1.66" y2="-3.8" layer="51"/>
<rectangle x1="-0.88" y1="-5.32" x2="-0.39" y2="-3.8" layer="51"/>
<rectangle x1="0.39" y1="-5.32" x2="0.88" y2="-3.8" layer="51"/>
<rectangle x1="1.66" y1="-5.32" x2="2.15" y2="-3.8" layer="51"/>
<rectangle x1="2.93" y1="-5.32" x2="3.42" y2="-3.8" layer="51"/>
<rectangle x1="4.2" y1="-5.32" x2="4.69" y2="-3.8" layer="51"/>
<rectangle x1="4.2" y1="3.8" x2="4.69" y2="5.32" layer="51"/>
<rectangle x1="2.93" y1="3.8" x2="3.42" y2="5.32" layer="51"/>
<rectangle x1="1.66" y1="3.8" x2="2.15" y2="5.32" layer="51"/>
<rectangle x1="0.39" y1="3.8" x2="0.88" y2="5.32" layer="51"/>
<rectangle x1="-0.88" y1="3.8" x2="-0.39" y2="5.32" layer="51"/>
<rectangle x1="-2.15" y1="3.8" x2="-1.66" y2="5.32" layer="51"/>
<rectangle x1="-3.42" y1="3.8" x2="-2.93" y2="5.32" layer="51"/>
<rectangle x1="-4.69" y1="3.8" x2="-4.2" y2="5.32" layer="51"/>
</package>
</packages>
<symbols>
<symbol name="BQ24450DWTR">
<wire x1="-10.16" y1="-12.7" x2="-10.16" y2="12.7" width="0.4064" layer="94"/>
<wire x1="25.4" y1="12.7" x2="-10.16" y2="12.7" width="0.4064" layer="94"/>
<wire x1="25.4" y1="12.7" x2="25.4" y2="-12.7" width="0.4064" layer="94"/>
<wire x1="-10.16" y1="-12.7" x2="25.4" y2="-12.7" width="0.4064" layer="94"/>
<text x="2.54" y="0.635" size="1.778" layer="95">&gt;NAME</text>
<text x="2.54" y="-2.54" size="1.778" layer="96">&gt;VALUE</text>
<pin name="IFB" x="10.16" y="17.78" length="middle" direction="in" rot="R270"/>
<pin name="BSTOP" x="-15.24" y="-5.08" length="middle" direction="in"/>
<pin name="STAT2" x="-15.24" y="-10.16" length="middle" direction="in"/>
<pin name="ISNS" x="-15.24" y="0" length="middle" direction="hiz"/>
<pin name="DRVC" x="17.78" y="12.7" length="middle" direction="out" rot="R90"/>
<pin name="PGOOD" x="30.48" y="-10.16" length="middle" direction="in" rot="R180"/>
<pin name="ISNSM" x="2.54" y="17.78" length="middle" direction="in" rot="R270"/>
<pin name="VFB" x="30.48" y="0" length="middle" direction="in" rot="R180"/>
<pin name="ISNSP" x="-2.54" y="17.78" length="middle" direction="pwr" rot="R270"/>
<pin name="IN" x="-15.24" y="5.08" length="middle" direction="in"/>
<pin name="GND" x="0" y="-17.78" length="middle" direction="in" rot="R90"/>
<pin name="STAT1" x="30.48" y="-5.08" length="middle" direction="in" rot="R180"/>
<pin name="PRE-CHG" x="30.48" y="10.16" length="middle" direction="pwr" rot="R180"/>
<pin name="CE" x="30.48" y="5.08" length="middle" direction="in" rot="R180"/>
<pin name="COMP" x="5.08" y="-17.78" length="middle" direction="in" rot="R90"/>
<pin name="DRVE" x="12.7" y="-17.78" length="middle" direction="pwr" rot="R90"/>
</symbol>
</symbols>
<devicesets>
<deviceset name="BQ24450DWTR" prefix="U">
<description>&lt;b&gt;CHARGE CONTROLLER FOR LEAD-ACID BATTERIES&lt;/b&gt;</description>
<gates>
<gate name="G$1" symbol="BQ24450DWTR" x="0" y="0"/>
</gates>
<devices>
<device name="" package="SO-16DW">
<connects>
<connect gate="G$1" pin="BSTOP" pad="8"/>
<connect gate="G$1" pin="CE" pad="12"/>
<connect gate="G$1" pin="COMP" pad="14"/>
<connect gate="G$1" pin="DRVC" pad="16"/>
<connect gate="G$1" pin="DRVE" pad="15"/>
<connect gate="G$1" pin="GND" pad="6"/>
<connect gate="G$1" pin="IFB" pad="4"/>
<connect gate="G$1" pin="IN" pad="5"/>
<connect gate="G$1" pin="ISNS" pad="1"/>
<connect gate="G$1" pin="ISNSM" pad="2"/>
<connect gate="G$1" pin="ISNSP" pad="3"/>
<connect gate="G$1" pin="PGOOD" pad="7"/>
<connect gate="G$1" pin="PRE-CHG" pad="11"/>
<connect gate="G$1" pin="STAT1" pad="10"/>
<connect gate="G$1" pin="STAT2" pad="9"/>
<connect gate="G$1" pin="VFB" pad="13"/>
</connects>
<technologies>
<technology name=""/>
</technologies>
</device>
</devices>
</deviceset>
</devicesets>
</library>
</drawing>
</eagle>
