<?xml version="1.0" encoding="utf-8"?>
<!DOCTYPE eagle SYSTEM "eagle.dtd">
<eagle version="6.5.0">
<drawing>
<settings>
<setting alwaysvectorfont="no"/>
<setting verticaltext="up"/>
</settings>
<grid distance="0.1" unitdist="inch" unit="inch" style="lines" multiple="1" display="no" altdistance="0.01" altunitdist="inch" altunit="inch"/>
<layers>
<layer number="1" name="Top" color="4" fill="1" visible="yes" active="yes"/>
<layer number="16" name="Bottom" color="1" fill="1" visible="yes" active="yes"/>
<layer number="17" name="Pads" color="2" fill="1" visible="yes" active="yes"/>
<layer number="18" name="Vias" color="2" fill="1" visible="yes" active="yes"/>
<layer number="19" name="Unrouted" color="6" fill="1" visible="yes" active="yes"/>
<layer number="20" name="Dimension" color="15" fill="1" visible="yes" active="yes"/>
<layer number="21" name="tPlace" color="7" fill="1" visible="yes" active="yes"/>
<layer number="22" name="bPlace" color="7" fill="1" visible="yes" active="yes"/>
<layer number="23" name="tOrigins" color="15" fill="1" visible="yes" active="yes"/>
<layer number="24" name="bOrigins" color="15" fill="1" visible="yes" active="yes"/>
<layer number="25" name="tNames" color="7" fill="1" visible="yes" active="yes"/>
<layer number="26" name="bNames" color="7" fill="1" visible="yes" active="yes"/>
<layer number="27" name="tValues" color="7" fill="1" visible="yes" active="yes"/>
<layer number="28" name="bValues" color="7" fill="1" visible="yes" active="yes"/>
<layer number="29" name="tStop" color="7" fill="3" visible="no" active="yes"/>
<layer number="30" name="bStop" color="7" fill="6" visible="no" active="yes"/>
<layer number="31" name="tCream" color="7" fill="4" visible="no" active="yes"/>
<layer number="32" name="bCream" color="7" fill="5" visible="no" active="yes"/>
<layer number="33" name="tFinish" color="6" fill="3" visible="no" active="yes"/>
<layer number="34" name="bFinish" color="6" fill="6" visible="no" active="yes"/>
<layer number="35" name="tGlue" color="7" fill="4" visible="no" active="yes"/>
<layer number="36" name="bGlue" color="7" fill="5" visible="no" active="yes"/>
<layer number="37" name="tTest" color="7" fill="1" visible="no" active="yes"/>
<layer number="38" name="bTest" color="7" fill="1" visible="no" active="yes"/>
<layer number="39" name="tKeepout" color="4" fill="11" visible="yes" active="yes"/>
<layer number="40" name="bKeepout" color="1" fill="11" visible="yes" active="yes"/>
<layer number="41" name="tRestrict" color="4" fill="10" visible="yes" active="yes"/>
<layer number="42" name="bRestrict" color="1" fill="10" visible="yes" active="yes"/>
<layer number="43" name="vRestrict" color="2" fill="10" visible="yes" active="yes"/>
<layer number="44" name="Drills" color="7" fill="1" visible="no" active="yes"/>
<layer number="45" name="Holes" color="7" fill="1" visible="no" active="yes"/>
<layer number="46" name="Milling" color="3" fill="1" visible="no" active="yes"/>
<layer number="47" name="Measures" color="7" fill="1" visible="no" active="yes"/>
<layer number="48" name="Document" color="7" fill="1" visible="yes" active="yes"/>
<layer number="49" name="Reference" color="7" fill="1" visible="yes" active="yes"/>
<layer number="51" name="tDocu" color="7" fill="1" visible="yes" active="yes"/>
<layer number="52" name="bDocu" color="7" fill="1" visible="yes" active="yes"/>
<layer number="91" name="Nets" color="2" fill="1" visible="yes" active="yes"/>
<layer number="92" name="Busses" color="1" fill="1" visible="yes" active="yes"/>
<layer number="93" name="Pins" color="2" fill="1" visible="yes" active="yes"/>
<layer number="94" name="Symbols" color="4" fill="1" visible="yes" active="yes"/>
<layer number="95" name="Names" color="7" fill="1" visible="yes" active="yes"/>
<layer number="96" name="Values" color="7" fill="1" visible="yes" active="yes"/>
<layer number="97" name="Info" color="7" fill="1" visible="yes" active="yes"/>
<layer number="98" name="Guide" color="6" fill="1" visible="yes" active="yes"/>
</layers>
<library>
<packages>
<package name="W4505-02PDRBTWR">
<wire x1="-6.4" y1="-2.8" x2="-6.4" y2="-2.1" width="0.127" layer="21"/>
<wire x1="-6.4" y1="-2.1" x2="-6.4" y2="2.1" width="0.127" layer="21"/>
<wire x1="-6.4" y1="2.1" x2="-6.4" y2="2.8" width="0.127" layer="21"/>
<wire x1="-6.4" y1="2.8" x2="6.4" y2="2.8" width="0.127" layer="21"/>
<wire x1="6.4" y1="2.8" x2="6.4" y2="0.8" width="0.127" layer="21"/>
<wire x1="6.4" y1="0.8" x2="6.4" y2="-0.8" width="0.127" layer="21"/>
<wire x1="6.4" y1="-0.8" x2="6.4" y2="-2.8" width="0.127" layer="21"/>
<wire x1="6.4" y1="-2.8" x2="-6.4" y2="-2.8" width="0.127" layer="21"/>
<wire x1="-6.4" y1="2.1" x2="-4.4" y2="2.1" width="0.127" layer="21"/>
<wire x1="-4.4" y1="2.1" x2="-3.4" y2="2.1" width="0.127" layer="21"/>
<wire x1="-3.4" y1="2.1" x2="-3.4" y2="-2.1" width="0.127" layer="21"/>
<wire x1="-3.4" y1="-2.1" x2="-4.4" y2="-2.1" width="0.127" layer="21"/>
<wire x1="-4.4" y1="-2.1" x2="-6.4" y2="-2.1" width="0.127" layer="21"/>
<wire x1="-4.4" y1="2.1" x2="-4.4" y2="-2.1" width="0.127" layer="21"/>
<wire x1="6.4" y1="0.8" x2="7" y2="0.8" width="0.127" layer="21"/>
<wire x1="7" y1="0.8" x2="7.8" y2="0.8" width="0.127" layer="21"/>
<wire x1="7.8" y1="0.8" x2="8.3" y2="0.3" width="0.127" layer="21"/>
<wire x1="8.3" y1="0.3" x2="8.3" y2="-0.3" width="0.127" layer="21"/>
<wire x1="8.3" y1="-0.3" x2="7.8" y2="-0.8" width="0.127" layer="21"/>
<wire x1="7.8" y1="-0.8" x2="7" y2="-0.8" width="0.127" layer="21"/>
<wire x1="7" y1="-0.8" x2="6.4" y2="-0.8" width="0.127" layer="21"/>
<wire x1="7.8" y1="0.8" x2="12" y2="0.8" width="0.127" layer="21"/>
<wire x1="12" y1="0.8" x2="12.8" y2="0.8" width="0.127" layer="21"/>
<wire x1="12.8" y1="0.8" x2="13.3" y2="0.3" width="0.127" layer="21"/>
<wire x1="13.3" y1="0.3" x2="13.3" y2="-0.3" width="0.127" layer="21"/>
<wire x1="13.3" y1="-0.3" x2="12.8" y2="-0.8" width="0.127" layer="21"/>
<wire x1="12.8" y1="-0.8" x2="12" y2="-0.8" width="0.127" layer="21"/>
<wire x1="12" y1="-0.8" x2="7.8" y2="-0.8" width="0.127" layer="21"/>
<wire x1="7" y1="0.8" x2="6.5" y2="0.3" width="0.127" layer="21"/>
<wire x1="6.5" y1="0.3" x2="6.5" y2="-0.3" width="0.127" layer="21"/>
<wire x1="6.5" y1="-0.3" x2="7" y2="-0.8" width="0.127" layer="21"/>
<wire x1="12" y1="0.8" x2="11.5" y2="0.3" width="0.127" layer="21"/>
<wire x1="11.5" y1="0.3" x2="11.5" y2="-0.3" width="0.127" layer="21"/>
<wire x1="11.5" y1="-0.3" x2="12" y2="-0.8" width="0.127" layer="21"/>
<pad name="1" x="7.4" y="0" drill="1.6" diameter="3.5" shape="offset" rot="R180"/>
<pad name="2" x="12.4" y="0" drill="1.6" diameter="3.5" shape="offset"/>
</package>
<package name="W4505-04PDRBTWR">
<wire x1="-6.4" y1="-4.9" x2="-6.4" y2="-2.1" width="0.127" layer="21"/>
<wire x1="-6.4" y1="-2.1" x2="-6.4" y2="2.1" width="0.127" layer="21"/>
<wire x1="-6.4" y1="2.1" x2="-6.4" y2="4.9" width="0.127" layer="21"/>
<wire x1="-6.4" y1="4.9" x2="6.4" y2="4.9" width="0.127" layer="21"/>
<wire x1="6.4" y1="4.9" x2="6.4" y2="2.9" width="0.127" layer="21"/>
<wire x1="6.4" y1="2.9" x2="6.4" y2="1.3" width="0.127" layer="21"/>
<wire x1="6.4" y1="1.3" x2="6.4" y2="-4.9" width="0.127" layer="21"/>
<wire x1="6.4" y1="-4.9" x2="-6.4" y2="-4.9" width="0.127" layer="21"/>
<wire x1="-6.4" y1="2.1" x2="-4.4" y2="2.1" width="0.127" layer="21"/>
<wire x1="-4.4" y1="2.1" x2="-3.4" y2="2.1" width="0.127" layer="21"/>
<wire x1="-3.4" y1="2.1" x2="-3.4" y2="-2.1" width="0.127" layer="21"/>
<wire x1="-3.4" y1="-2.1" x2="-4.4" y2="-2.1" width="0.127" layer="21"/>
<wire x1="-4.4" y1="-2.1" x2="-6.4" y2="-2.1" width="0.127" layer="21"/>
<wire x1="-4.4" y1="2.1" x2="-4.4" y2="-2.1" width="0.127" layer="21"/>
<wire x1="6.4" y1="2.9" x2="7" y2="2.9" width="0.127" layer="21"/>
<wire x1="7" y1="2.9" x2="7.8" y2="2.9" width="0.127" layer="21"/>
<wire x1="7.8" y1="2.9" x2="8.3" y2="2.4" width="0.127" layer="21"/>
<wire x1="8.3" y1="2.4" x2="8.3" y2="1.8" width="0.127" layer="21"/>
<wire x1="8.3" y1="1.8" x2="7.8" y2="1.3" width="0.127" layer="21"/>
<wire x1="7.8" y1="1.3" x2="7" y2="1.3" width="0.127" layer="21"/>
<wire x1="7" y1="1.3" x2="6.4" y2="1.3" width="0.127" layer="21"/>
<wire x1="7.8" y1="2.9" x2="12" y2="2.9" width="0.127" layer="21"/>
<wire x1="12" y1="2.9" x2="12.8" y2="2.9" width="0.127" layer="21"/>
<wire x1="12.8" y1="2.9" x2="13.3" y2="2.4" width="0.127" layer="21"/>
<wire x1="13.3" y1="2.4" x2="13.3" y2="1.8" width="0.127" layer="21"/>
<wire x1="13.3" y1="1.8" x2="12.8" y2="1.3" width="0.127" layer="21"/>
<wire x1="12.8" y1="1.3" x2="12" y2="1.3" width="0.127" layer="21"/>
<wire x1="12" y1="1.3" x2="7.8" y2="1.3" width="0.127" layer="21"/>
<wire x1="7" y1="2.9" x2="6.5" y2="2.4" width="0.127" layer="21"/>
<wire x1="6.5" y1="2.4" x2="6.5" y2="1.8" width="0.127" layer="21"/>
<wire x1="6.5" y1="1.8" x2="7" y2="1.3" width="0.127" layer="21"/>
<wire x1="12" y1="2.9" x2="11.5" y2="2.4" width="0.127" layer="21"/>
<wire x1="11.5" y1="2.4" x2="11.5" y2="1.8" width="0.127" layer="21"/>
<wire x1="11.5" y1="1.8" x2="12" y2="1.3" width="0.127" layer="21"/>
<wire x1="6.4" y1="0.7" x2="6.4" y2="-1.3" width="0.127" layer="21"/>
<wire x1="6.4" y1="-1.3" x2="6.4" y2="-2.9" width="0.127" layer="21"/>
<wire x1="6.4" y1="-1.3" x2="7" y2="-1.3" width="0.127" layer="21"/>
<wire x1="7" y1="-1.3" x2="7.8" y2="-1.3" width="0.127" layer="21"/>
<wire x1="7.8" y1="-1.3" x2="8.3" y2="-1.8" width="0.127" layer="21"/>
<wire x1="8.3" y1="-1.8" x2="8.3" y2="-2.4" width="0.127" layer="21"/>
<wire x1="8.3" y1="-2.4" x2="7.8" y2="-2.9" width="0.127" layer="21"/>
<wire x1="7.8" y1="-2.9" x2="7" y2="-2.9" width="0.127" layer="21"/>
<wire x1="7" y1="-2.9" x2="6.4" y2="-2.9" width="0.127" layer="21"/>
<wire x1="7.8" y1="-1.3" x2="12" y2="-1.3" width="0.127" layer="21"/>
<wire x1="12" y1="-1.3" x2="12.8" y2="-1.3" width="0.127" layer="21"/>
<wire x1="12.8" y1="-1.3" x2="13.3" y2="-1.8" width="0.127" layer="21"/>
<wire x1="13.3" y1="-1.8" x2="13.3" y2="-2.4" width="0.127" layer="21"/>
<wire x1="13.3" y1="-2.4" x2="12.8" y2="-2.9" width="0.127" layer="21"/>
<wire x1="12.8" y1="-2.9" x2="12" y2="-2.9" width="0.127" layer="21"/>
<wire x1="12" y1="-2.9" x2="7.8" y2="-2.9" width="0.127" layer="21"/>
<wire x1="7" y1="-1.3" x2="6.5" y2="-1.8" width="0.127" layer="21"/>
<wire x1="6.5" y1="-1.8" x2="6.5" y2="-2.4" width="0.127" layer="21"/>
<wire x1="6.5" y1="-2.4" x2="7" y2="-2.9" width="0.127" layer="21"/>
<wire x1="12" y1="-1.3" x2="11.5" y2="-1.8" width="0.127" layer="21"/>
<wire x1="11.5" y1="-1.8" x2="11.5" y2="-2.4" width="0.127" layer="21"/>
<wire x1="11.5" y1="-2.4" x2="12" y2="-2.9" width="0.127" layer="21"/>
<pad name="2" x="12.4" y="2.1" drill="1.6" diameter="3.5" shape="offset"/>
<pad name="4" x="12.4" y="-2.1" drill="1.6" diameter="3.5" shape="offset"/>
<pad name="3" x="7.4" y="-2.1" drill="1.6" diameter="3.5" shape="offset" rot="R180"/>
<pad name="1" x="7.4" y="2.1" drill="1.6" diameter="3.5" shape="offset" rot="R180"/>
</package>
<package name="W4505-06PDRBTWR">
<wire x1="-6.4" y1="-7" x2="-6.4" y2="-2.1" width="0.127" layer="21"/>
<wire x1="-6.4" y1="-2.1" x2="-6.4" y2="2.1" width="0.127" layer="21"/>
<wire x1="-6.4" y1="2.1" x2="-6.4" y2="7" width="0.127" layer="21"/>
<wire x1="-6.4" y1="7" x2="6.4" y2="7" width="0.127" layer="21"/>
<wire x1="6.4" y1="7" x2="6.4" y2="0.8" width="0.127" layer="21"/>
<wire x1="6.4" y1="0.8" x2="6.4" y2="-0.8" width="0.127" layer="21"/>
<wire x1="6.4" y1="-0.8" x2="6.4" y2="-7" width="0.127" layer="21"/>
<wire x1="6.4" y1="-7" x2="-6.4" y2="-7" width="0.127" layer="21"/>
<wire x1="-6.4" y1="2.1" x2="-4.4" y2="2.1" width="0.127" layer="21"/>
<wire x1="-4.4" y1="2.1" x2="-3.4" y2="2.1" width="0.127" layer="21"/>
<wire x1="-3.4" y1="2.1" x2="-3.4" y2="-2.1" width="0.127" layer="21"/>
<wire x1="-3.4" y1="-2.1" x2="-4.4" y2="-2.1" width="0.127" layer="21"/>
<wire x1="-4.4" y1="-2.1" x2="-6.4" y2="-2.1" width="0.127" layer="21"/>
<wire x1="-4.4" y1="2.1" x2="-4.4" y2="-2.1" width="0.127" layer="21"/>
<wire x1="6.4" y1="0.8" x2="7" y2="0.8" width="0.127" layer="21"/>
<wire x1="7" y1="0.8" x2="7.8" y2="0.8" width="0.127" layer="21"/>
<wire x1="7.8" y1="0.8" x2="8.3" y2="0.3" width="0.127" layer="21"/>
<wire x1="8.3" y1="0.3" x2="8.3" y2="-0.3" width="0.127" layer="21"/>
<wire x1="8.3" y1="-0.3" x2="7.8" y2="-0.8" width="0.127" layer="21"/>
<wire x1="7.8" y1="-0.8" x2="7" y2="-0.8" width="0.127" layer="21"/>
<wire x1="7" y1="-0.8" x2="6.4" y2="-0.8" width="0.127" layer="21"/>
<wire x1="7.8" y1="0.8" x2="12" y2="0.8" width="0.127" layer="21"/>
<wire x1="12" y1="0.8" x2="12.8" y2="0.8" width="0.127" layer="21"/>
<wire x1="12.8" y1="0.8" x2="13.3" y2="0.3" width="0.127" layer="21"/>
<wire x1="13.3" y1="0.3" x2="13.3" y2="-0.3" width="0.127" layer="21"/>
<wire x1="13.3" y1="-0.3" x2="12.8" y2="-0.8" width="0.127" layer="21"/>
<wire x1="12.8" y1="-0.8" x2="12" y2="-0.8" width="0.127" layer="21"/>
<wire x1="12" y1="-0.8" x2="7.8" y2="-0.8" width="0.127" layer="21"/>
<wire x1="7" y1="0.8" x2="6.5" y2="0.3" width="0.127" layer="21"/>
<wire x1="6.5" y1="0.3" x2="6.5" y2="-0.3" width="0.127" layer="21"/>
<wire x1="6.5" y1="-0.3" x2="7" y2="-0.8" width="0.127" layer="21"/>
<wire x1="12" y1="0.8" x2="11.5" y2="0.3" width="0.127" layer="21"/>
<wire x1="11.5" y1="0.3" x2="11.5" y2="-0.3" width="0.127" layer="21"/>
<wire x1="11.5" y1="-0.3" x2="12" y2="-0.8" width="0.127" layer="21"/>
<wire x1="6.4" y1="-3.4" x2="6.4" y2="-5" width="0.127" layer="21"/>
<wire x1="6.4" y1="-3.4" x2="7" y2="-3.4" width="0.127" layer="21"/>
<wire x1="7" y1="-3.4" x2="7.8" y2="-3.4" width="0.127" layer="21"/>
<wire x1="7.8" y1="-3.4" x2="8.3" y2="-3.9" width="0.127" layer="21"/>
<wire x1="8.3" y1="-3.9" x2="8.3" y2="-4.5" width="0.127" layer="21"/>
<wire x1="8.3" y1="-4.5" x2="7.8" y2="-5" width="0.127" layer="21"/>
<wire x1="7.8" y1="-5" x2="7" y2="-5" width="0.127" layer="21"/>
<wire x1="7" y1="-5" x2="6.4" y2="-5" width="0.127" layer="21"/>
<wire x1="7.8" y1="-3.4" x2="12" y2="-3.4" width="0.127" layer="21"/>
<wire x1="12" y1="-3.4" x2="12.8" y2="-3.4" width="0.127" layer="21"/>
<wire x1="12.8" y1="-3.4" x2="13.3" y2="-3.9" width="0.127" layer="21"/>
<wire x1="13.3" y1="-3.9" x2="13.3" y2="-4.5" width="0.127" layer="21"/>
<wire x1="13.3" y1="-4.5" x2="12.8" y2="-5" width="0.127" layer="21"/>
<wire x1="12.8" y1="-5" x2="12" y2="-5" width="0.127" layer="21"/>
<wire x1="12" y1="-5" x2="7.8" y2="-5" width="0.127" layer="21"/>
<wire x1="7" y1="-3.4" x2="6.5" y2="-3.9" width="0.127" layer="21"/>
<wire x1="6.5" y1="-3.9" x2="6.5" y2="-4.5" width="0.127" layer="21"/>
<wire x1="6.5" y1="-4.5" x2="7" y2="-5" width="0.127" layer="21"/>
<wire x1="12" y1="-3.4" x2="11.5" y2="-3.9" width="0.127" layer="21"/>
<wire x1="11.5" y1="-3.9" x2="11.5" y2="-4.5" width="0.127" layer="21"/>
<wire x1="11.5" y1="-4.5" x2="12" y2="-5" width="0.127" layer="21"/>
<pad name="4" x="12.4" y="0" drill="1.6" diameter="3.5" shape="offset"/>
<pad name="6" x="12.4" y="-4.2" drill="1.6" diameter="3.5" shape="offset"/>
<pad name="5" x="7.4" y="-4.2" drill="1.6" diameter="3.5" shape="offset" rot="R180"/>
<pad name="3" x="7.4" y="0" drill="1.6" diameter="3.5" shape="offset" rot="R180"/>
<wire x1="6.4" y1="5" x2="6.4" y2="3.4" width="0.127" layer="21"/>
<wire x1="6.4" y1="5" x2="7" y2="5" width="0.127" layer="21"/>
<wire x1="7" y1="5" x2="7.8" y2="5" width="0.127" layer="21"/>
<wire x1="7.8" y1="5" x2="8.3" y2="4.5" width="0.127" layer="21"/>
<wire x1="8.3" y1="4.5" x2="8.3" y2="3.9" width="0.127" layer="21"/>
<wire x1="8.3" y1="3.9" x2="7.8" y2="3.4" width="0.127" layer="21"/>
<wire x1="7.8" y1="3.4" x2="7" y2="3.4" width="0.127" layer="21"/>
<wire x1="7" y1="3.4" x2="6.4" y2="3.4" width="0.127" layer="21"/>
<wire x1="7.8" y1="5" x2="12" y2="5" width="0.127" layer="21"/>
<wire x1="12" y1="5" x2="12.8" y2="5" width="0.127" layer="21"/>
<wire x1="12.8" y1="5" x2="13.3" y2="4.5" width="0.127" layer="21"/>
<wire x1="13.3" y1="4.5" x2="13.3" y2="3.9" width="0.127" layer="21"/>
<wire x1="13.3" y1="3.9" x2="12.8" y2="3.4" width="0.127" layer="21"/>
<wire x1="12.8" y1="3.4" x2="12" y2="3.4" width="0.127" layer="21"/>
<wire x1="12" y1="3.4" x2="7.8" y2="3.4" width="0.127" layer="21"/>
<wire x1="7" y1="5" x2="6.5" y2="4.5" width="0.127" layer="21"/>
<wire x1="6.5" y1="4.5" x2="6.5" y2="3.9" width="0.127" layer="21"/>
<wire x1="6.5" y1="3.9" x2="7" y2="3.4" width="0.127" layer="21"/>
<wire x1="12" y1="5" x2="11.5" y2="4.5" width="0.127" layer="21"/>
<wire x1="11.5" y1="4.5" x2="11.5" y2="3.9" width="0.127" layer="21"/>
<wire x1="11.5" y1="3.9" x2="12" y2="3.4" width="0.127" layer="21"/>
<pad name="2" x="12.4" y="4.2" drill="1.6" diameter="3.5" shape="offset"/>
<pad name="1" x="7.4" y="4.2" drill="1.6" diameter="3.5" shape="offset" rot="R180"/>
</package>
<package name="W4505-02VERTICAL">
<wire x1="-5" y1="-2.8" x2="-5" y2="-2.1" width="0.127" layer="21"/>
<wire x1="-5" y1="-2.1" x2="-5" y2="2.1" width="0.127" layer="21"/>
<wire x1="-5" y1="2.1" x2="-5" y2="2.8" width="0.127" layer="21"/>
<wire x1="-5" y1="2.8" x2="5" y2="2.8" width="0.127" layer="21"/>
<wire x1="5" y1="2.8" x2="5" y2="-2.8" width="0.127" layer="21"/>
<wire x1="5" y1="-2.8" x2="-5" y2="-2.8" width="0.127" layer="21"/>
<wire x1="-5" y1="2.1" x2="-6" y2="2.1" width="0.127" layer="21"/>
<wire x1="-6" y1="2.1" x2="-7" y2="2.1" width="0.127" layer="21"/>
<wire x1="-7" y1="2.1" x2="-7" y2="-2.1" width="0.127" layer="21"/>
<wire x1="-7" y1="-2.1" x2="-6" y2="-2.1" width="0.127" layer="21"/>
<wire x1="-6" y1="-2.1" x2="-5" y2="-2.1" width="0.127" layer="21"/>
<wire x1="-6" y1="2.1" x2="-6" y2="-2.1" width="0.127" layer="21"/>
<pad name="P$1" x="-2.5" y="0" drill="1.6" diameter="2.54" shape="long" rot="R90"/>
<pad name="P$2" x="2.5" y="0" drill="1.6" diameter="2.54" shape="long" rot="R90"/>
</package>
</packages>
<symbols>
<symbol name="W4505-02PDRBTWR">
<pin name="1" x="-2.54" y="2.54" length="middle" rot="R180"/>
<pin name="2" x="-2.54" y="-2.54" length="middle" rot="R180"/>
<wire x1="-5.08" y1="-5.08" x2="-5.08" y2="5.08" width="0.254" layer="94"/>
<wire x1="-5.08" y1="5.08" x2="-7.62" y2="5.08" width="0.254" layer="94"/>
<wire x1="-7.62" y1="5.08" x2="-7.62" y2="-5.08" width="0.254" layer="94"/>
<wire x1="-7.62" y1="-5.08" x2="-5.08" y2="-5.08" width="0.254" layer="94"/>
</symbol>
<symbol name="W4505-04PDRBTWR">
<pin name="2" x="2.54" y="2.54" length="middle" rot="R180"/>
<pin name="1" x="2.54" y="7.62" length="middle" rot="R180"/>
<pin name="3" x="2.54" y="-2.54" length="middle" rot="R180"/>
<pin name="4" x="2.54" y="-7.62" length="middle" rot="R180"/>
<wire x1="0" y1="10.16" x2="0" y2="-10.16" width="0.254" layer="94"/>
<wire x1="0" y1="-10.16" x2="-2.54" y2="-10.16" width="0.254" layer="94"/>
<wire x1="-2.54" y1="-10.16" x2="-2.54" y2="10.16" width="0.254" layer="94"/>
<wire x1="-2.54" y1="10.16" x2="0" y2="10.16" width="0.254" layer="94"/>
</symbol>
<symbol name="W4505-06PDRBTWR">
<pin name="1" x="2.54" y="12.7" length="middle" rot="R180"/>
<pin name="2" x="2.54" y="7.62" length="middle" rot="R180"/>
<pin name="3" x="2.54" y="2.54" length="middle" rot="R180"/>
<pin name="4" x="2.54" y="-2.54" length="middle" rot="R180"/>
<pin name="5" x="2.54" y="-7.62" length="middle" rot="R180"/>
<pin name="6" x="2.54" y="-12.7" length="middle" rot="R180"/>
<wire x1="0" y1="15.24" x2="-2.54" y2="15.24" width="0.254" layer="94"/>
<wire x1="-2.54" y1="15.24" x2="-2.54" y2="-15.24" width="0.254" layer="94"/>
<wire x1="-2.54" y1="-15.24" x2="0" y2="-15.24" width="0.254" layer="94"/>
<wire x1="0" y1="-15.24" x2="0" y2="15.24" width="0.254" layer="94"/>
</symbol>
<symbol name="W4505-02VERTICAL">
</symbol>
</symbols>
<devicesets>
<deviceset name="W4505-02PDRBTWR">
<gates>
<gate name="G$1" symbol="W4505-02PDRBTWR" x="5.08" y="2.54"/>
</gates>
<devices>
<device name="" package="W4505-02PDRBTWR">
<connects>
<connect gate="G$1" pin="1" pad="1"/>
<connect gate="G$1" pin="2" pad="2"/>
</connects>
<technologies>
<technology name=""/>
</technologies>
</device>
</devices>
</deviceset>
<deviceset name="W4505-04PDRBTWR">
<gates>
<gate name="G$1" symbol="W4505-04PDRBTWR" x="-7.62" y="-2.54"/>
</gates>
<devices>
<device name="" package="W4505-04PDRBTWR">
<connects>
<connect gate="G$1" pin="1" pad="1"/>
<connect gate="G$1" pin="2" pad="2"/>
<connect gate="G$1" pin="3" pad="3"/>
<connect gate="G$1" pin="4" pad="4"/>
</connects>
<technologies>
<technology name=""/>
</technologies>
</device>
</devices>
</deviceset>
<deviceset name="W4505-06PDRBTWR">
<gates>
<gate name="G$1" symbol="W4505-06PDRBTWR" x="-10.16" y="-5.08"/>
</gates>
<devices>
<device name="" package="W4505-06PDRBTWR">
<connects>
<connect gate="G$1" pin="1" pad="1"/>
<connect gate="G$1" pin="2" pad="2"/>
<connect gate="G$1" pin="3" pad="3"/>
<connect gate="G$1" pin="4" pad="4"/>
<connect gate="G$1" pin="5" pad="5"/>
<connect gate="G$1" pin="6" pad="6"/>
</connects>
<technologies>
<technology name=""/>
</technologies>
</device>
</devices>
</deviceset>
<deviceset name="W4505-02VERTICAL">
<gates>
<gate name="G$2" symbol="W4505-02PDRBTWR" x="15.24" y="-17.78"/>
</gates>
<devices>
<device name="" package="W4505-02VERTICAL">
<connects>
<connect gate="G$2" pin="1" pad="P$1"/>
<connect gate="G$2" pin="2" pad="P$2"/>
</connects>
<technologies>
<technology name=""/>
</technologies>
</device>
</devices>
</deviceset>
</devicesets>
</library>
</drawing>
</eagle>
